ECN-n-12
JKN-an-1
CH-an-6
CHB-an-2
EPC-an-13
EPN-v-300
EPP-an-7
EPA-v-300
EPT-an-20
CGC-an-13
CGN-an-70
CGP-an-9
CGA-an-35
CAT-an-35
CAC-an-35
CAS-an-35
CGK-an-2
AWB-an-20
NO-n-6
GW-n-8
ST-an-7
DSC-an-5
PSC-an-3
FCD-an-3
FKK-n-20
SKK-n-8
CMN-an-200
NT-v-300
REF-an-20