SMC-an-13
APN-n-12
FNC-n-1
APT-an-4
EIC-an-1
APP-an-6
ENC-an-13
ENN-v-100
EDN-an-17
RCN-an-17
IP-an-35
ID-d-8
BAP-an-7
IMA-v-100
BCC-an-2
BAN-an-20
BAF-an-20
BAM-v-70
PCN-an-17
PCD-d-8
SCN-an-17
SCD-d-8
MTT-an-2
IPC-an-6
IPN-an-35
ESI-d-8
EEI-d-8
AD-v-250
RMK-v-332
PIC-v-100