B46-an-2
B48-an-12
ADN-an-7
B50-an-1
B51-v-200
B52-n-12
B53-an-4
VN1-5-VN1-n-1
B55-n-12
B56-an-4
B69-n-20
UPR-n-9
UPC-an-3
TSC-an-4
B57-n-17
B71-an-3
B72-n-20
B58-n-12
B59-an-4
KKT-n-18
KKS-an-4
B63-an-1
B64-an-30
SKB-an-1
SPD-an-10
B68-n-16
B76-an-2
B77-an-7
B78-an-3
B70-n-16
KWS-an-1
TDL-an-2
TXN-n-12
TXR-an-3
B79-an-5
B80-an-60
KO1-5-KO1-v-9
KO1-5-KP1-an-10
KO1-5-KQ1-n-17
KO1-5-KR1-n-12
KO1-5-KS1-an-4
KO1-5-KW1-an-25
KO1-5-KX1-n-16
KO1-5-KY1-an-5
KO1-5-LA1-an-60
KO1-5-LB1-n-16