ICN-n-12
JKN-an-1
FIC-an-12
BNO-n-2
DNO-n-2
TDN-n-12
A06-an-3
ICB-an-3
CCC-an-1
MTC-an-1
SKB-an-1
A00-an-4
A07-an-10
CHB-an-2
A09-d-8
AD1-an-6
AD2-d-8
AD3-an-6
RED-d-8
AAA-an-1
IMC-an-13
IMN-v-100
IMY-an-7
IMA-v-100
IMT-an-20
NMC-an-13
NMN-v-100
EPC-an-13
EPN-an-70
EPY-an-9
EPA-an-35
EP2-an-35
EP3-an-35
EP4-an-35
EPO-an-2
ENM-an-70
A37-an-5
A38-an-50
A39-an-5
BL_-5-BL_-an-35
NO-n-8
NOT-an-3
GW-n-10
GWT-an-3
COC-n-3
ST-an-7
A51-an-20
DST-an-6
DSN-an-35
PSC-an-5
PSN-an-35
VSC-an-9
VSN-an-35
ARR-d-8
MRK-an-140
ISD-d-8
OL_-5-OL_-an-2
IV1-an-1
IV3-an-35
IV2-n-12
IVD-d-8
IVP-an-7
IP1-an-1
IP2-an-3
IP3-an-3
IP4-n-20
A86-n-19
TP-n-20
A97-an-1
N4-an-1
SS_-5-SS_-an-4
SS_-5-SN_-an-20
VD1-an-1
VD2-n-9
A93-an-1
A94-an-2
A95-an-22
VCC-an-3
VPC-n-20
FR1-an-1
FR2-an-3
FR3-n-18
IN1-an-1
IN2-an-3
IN3-n-16
IN4-an-6
VR_-5-VR_-an-1
VR_-5-VL_-an-3
VR_-5-VC_-an-3
VR_-5-VP_-n-20
VR_-5-VT_-n-20
VLD-v-280
KF1-6-KF1-an-1
KF1-6-KG1-v-9
KF1-6-KH1-n-11
KF1-6-Kl1-n-2
B02-n-11
B03-n-11
KJ1-3-KJ1-an-3
KJ1-3-KK1-n-9
ENC-an-1
TPM-an-1
BP-an-1
B08-an-1
B12-n-2
B13-n-2
EA_-3-EA_-an-3
EA_-3-EB-n-12
NT2-v-100
REF-an-20
B16-an-5
CCM-an-1
D__-10-D__-d-8
D__-10-T__-v-40
D__-10-I__-v-140
ADY-d-8
ADZ-an-6
B23-v-27
KN1-6-KN1-an-1
KN1-6-KO1-v-9
KN1-6-KP1-d-8
DPD-d-8
ST_-3-ST_-an-7
ST_-3-AD_-d-8
ST_-3-SD_-d-8
ARP-an-7
ADT-d-8