CMD-an-12
GZC-an-7
TXA-n-10
TXB-n-10
TXC-an-4
TXD-an-3
CMN-v-200
OR-an-2
ORS-an-3
KWS-an-1
SPD-an-10
QN1-n-12
QT1-an-4
QN2-n-12
QT2-an-4
BPR-n-20
UPR-n-9
UPC-an-3
TSC-an-4
BPC-an-3
DPR-n-20
VN_-5-VN_-n-1
TDL-an-2
TXN-an-12
TXR-an-3
RE-an-5
REG-n-16
TX_-5-TX_-an-10
TX_-5-TR_-an-5
TX_-5-TG_-n-16
