ICN-n-12
FIC-an-12
BNO-n-2
DNO-n-2
TDN-n-12
ICB-an-3
CCC-an-1
MTC-an-1
SKB-an-1
CH-an-6
CHB-an-2
RED-d-8
ICD-d-8
IMC-an-13
IMN-v-100
IMY-an-7
IMA-v-100
IMT-an-20
NMC-an-13
NMN-v-100
EPC-an-13
EPN-an-70
EPY-an-9
EPA-an-35
EP2-an-35
EP3-an-35
EP4-an-35
EPO-an-2
ENM-an-70
ICC-an-5
BL_-5-BL_-an-35
NO-n-8
NOT-an-3
GW-n-10
GWT-an-3
ST-an-7
MRK-an-140
VSC-an-9
VSN-an-35
ARR-d-8
DST-an-6
DSN-an-35
PSC-an-5
PSN-an-35
COC-n-3
N4-an-1
OL_-5-OL_-an-2
SS_-5-SS_-an-4
SS_-5-SN_-an-20
IV1-an-1
IV2-n-12
IV3-an-35
IVD-d-8
IVP-an-7
IP1-an-1
IP2-an-3
IP3-an-3
IP4-n-20
VD1-an-1
VD2-an-9
VCC-an-3
VPC-n-20
FR1-an-1
FR2-an-3
FR3-n-18
IN1-an-1
IN2-an-3
IN3-n-16
IN4-an-6
VR_-5-VR_-an-1
VR_-5-VI_-an-3
VR_-5-VC_-an-3
VR_-5-VP_-n-20
VR_-5-VT_-n-20
VLD-v-280
TP-n-20
TPM-an-1
BP-an-1
BRC-an-11
BYA-n-4
BCM-an-10
BCN-an-10
ENC-an-1
SBC-an-11
RYA-n-4
SCM-an-10
SCN-an-10
EA_-3-EA_-an-3
EA_-3-EB_-n-12
ISD-d-8
DPD-d-8
ST_-3-ST_-an-7
ST_-3-AD_-d-8
ST_-3-SD_-d-8
ARP-an-7
ADT-d-8
NT2-v-100
REF-an-20
CCM-an-1
DTI-10-D__-d-8
DTI-10-T__-v-40
DTI-10-I__-v-140
