SBC-an-13
SBN-v-100
ONO-n-12
FNC-n-1
PRT-an-4
DOS-d-8
OAC-an-6
OAN-v-100
IMC-an-13
IMN-v-100
IPC-an-7
IAD-v-100
ICC-an-2
IPN-an-20
IFX-an-20
IEM-v-70
FSC-an-17
GCN-an-17
EPC-an-6
EPN-an-35
AD-v-250
RMA-v-332
SUD-d-8
PIC-v-100