A01-an-13
A02-v-100
A08-n-12
A06-n-1
A07-an-4
A09-an-1
A03-d-8
A04-an-6
A05-v-100
A10-an-13
A11-v-100
A13-an-17
A14-an-17
A15-an-35
A16-d-8
A18-an-7
A12-v-100
A17-an-2
A19-an-20
A20-an-20
A21-v-70
A22-an-17
A23-d-8
A24-an-17
A25-d-8
A26-an-2
MTN-v-25
B05-an-6
B06-an-35
A27-d-8
A28-d-8
AD-v-250
A30-v-332
A29-v-100