ICN-n-12
JYO-an-1
SKB-an-1
CH-an-6
CHB-an-2
IMC-an-13
IMN-v-100
IMY-an-7
IMA-v-100
IMT-an-20
EPC-an-13
EPN-an-70
EPY-an-9
EPA-an-35
EP2-an-35
EP3-an-35
EP4-an-35
EPO-an-2
HAB-an-20
MAB-an-20
NO-n-6
GW-n-8
ST-an-7
VSN-an-12
ARR-d-8
DST-an-3
PSC-an-5
IP1-an-1
IP2-an-3
IP3-an-3
IP4-n-20
FR1-an-1
FR2-an-3
FR3-n-18
IN1-an-1
IN2-an-3
IN3-n-16
CMN-v-200
OR-an-2
DPR-n-8
NT1-v-100
REF-an-20