B25-an-2
CMD-an-12
GZC-an-7
B29-an-1
CMN-v-200
QN1-n-12
QT1-an-4
VN_-5-VN_-n-1
QN2-n-12
QT2-an-4
BPR-n-20
UPR-n-9
UPC-an-3
TSC-an-4
B36-n-17
B50-an-3
B51-n-20
B37-n-12
B38-an-4
KKT-n-18
KKS-an-4
B42-an-1
B43-an-30
SKB-an-1
SPD-an-10
B47-n-16
OR-an-2
B56-an-7
ORS-an-3
B49-n-16
KWS-an-1
TDL-an-2
TXN-an-12
TXR-an-3
RE-an-5
B59-an-60
KQ1-5-KQ1-v-9
KQ1-5-TX_-an-10
KQ1-5-KS1-n-17
KQ1-5-KT1-n-12
KQ1-5-KU1-an-4
KQ1-5-KY1-an-25
KQ1-5-KZ1-n-16
KQ1-5-TR_-an-5
KQ1-5-LC1-an-60
KQ1-5-LB1-n-16