AB-v-48
KA-an-2
AD-an-10
AE-n-12
KB-an-1
ED-an-1
AF-d-8
AG-an-5
AH-an-50
AI-v-100
AL-an-13
AM-v-100
AN-v-100
AO-an-11
AP-d-8
AQ-d-8
AR-an-2
AS-an-12
AT-an-3
AU-v-70
AV-an-2
AW-v-70
AX-an-7
AY-an-6
AZ-an-6
BA-an-1
ZJ-v-35
BC-an-7
BD-an-6
BE-an-6
BF-an-1
BG-v-35
BH-an-35
FA-an-1
FB-n-11
BI-n-1
BJ-n-3
BK-v-255
DG-5-DG1-an-1
DG-5-BP1-an-35
DG-5-BQ1-d-8
DG-5-BT1-v-70
DG-5-BV1-n-4
DG-5-BU1-an-140
DG-5-BR1-d-8
DG-5-BS1-an-1
DG-5-BW1-an-2
DG-5-BX1-an-7
DG-5-BY1-an-6
DG-5-BZ1-an-35
DG-5-CA1-an-6
DG-5-CB1-an-35
DG-5-CC1-an-1
DG-5-CD1-an-38
DG-5-CE1-an-35
DG-5-CF1-d-8
DG-5-YA1-an-13
DG-5-YB1-v-100
DG-5-YC1-v-100
DG-5-WA1-an-13
DG-5-WB1-v-100
DG-5-WC1-v-100
DG-5-WD1-an-13
DG-5-WE1-v-100
DG-5-WF1-v-100
DG-5-OA1-an-2
DG-5-OA2-an-2
DG-5-OA3-an-2
DG-5-OA4-an-2
DG-5-OA5-an-2
DG-5-CM1-an-3
DG-5-CN1-n-20
DG-5-CO1-n-8
DG-5-CP1-an-3
DG-5-CQ1-n-10
DG-5-CR1-an-3
DG-5-CS1-n-10
DG-5-CT1-an-3
DG-5-RA1-an-5
DG-5-RA2-an-5
DG-5-RA3-an-5
DG-5-RA4-an-5
DG-5-RA5-an-5
DG-5-BM1-an-11
DG-5-BN1-d-8
DG-5-BO1-d-8
DG-5-CV1-v-255
CW-d-8
CX-n-2
CY-d-8
CZ-n-2
Z01-50-Z01-n-12
