SYN-n-12
CHS-an-6
CHB-an-2
YNK-an-1
ICN-n-12
ICB-an-3
IDD-d-8
IPD-d-8
RED-d-8
IMC-an-13
IMN-v-100
IMY-an-7
IMA-v-100
IMT-an-20
REC-an-1
TTC-an-3
BRC-an-11
BYA-n-4
BCM-an-10
BCN-an-10
ENC-an-1
SBC-an-11
RYA-n-4
SCM-an-10
SCN-an-10
CDB-an-3
RTB-n-9
CDA-an-3
RTA-n-9
REF-an-20
NTB-v-100
NTA-v-100