RAN-an-2
CMB-v-200
CMA-v-200
ORB-an-2
ORA-an-2
MKB-n-17
MKQ-n-12
MKC-an-4
MKT-an-12
MKR-an-30
MKA-an-16
AKB-n-17
AKQ-n-12
AKC-an-4
AKT-an-12
AKR-an-30
AKA-an-16
MB_-5-MB_-n-17
MB_-5-MQ_-n-12
MB_-5-MC_-an-4
MB_-5-MK_-an-10
MB_-5-MR_-an-25
MB_-5-MA_-an-16
MB_-5-AB_-n-17
MB_-5-AQ_-n-12
MB_-5-AC_-an-4
MB_-5-AK_-an-10
MB_-5-AR_-an-25
MB_-5-AA_-an-16