R01-an-2
R05-an-12
ADS-an-7
R03-an-1
R04-v-200
R08-n-12
R09-an-4
R11-n-12
R12-an-4
R13-n-20
UPR-n-9
UPC-an-3
TSC-an-4
R07-n-17
ADC-an-3
R14-an-3
R15-n-20
TSQ-n-12
TSU-an-4
CVU-n-18
ADD-an-3
QCV-an-4
TRA-an-30
TRM-an-1
TAX-n-16
ADE-an-3
TRP-n-16
ADF-an-3
TDN-an-2
ADG-n-12
ADH-an-3
CUP-an-21
IUP-an-21
CQU-n-12
CQC-an-4
IQU-n-12
IQC-an-4
CPR-n-16
IPR-n-16
F1-5-F1-an-2
TRC-an-5
TRL-an-60