ECN-n-12
FIC-an-12
BNO-n-2
DNO-n-2
TDN-n-12
ECB-an-3
CCC-an-1
MTC-an-1
RID-d-8
CH-an-6
CHB-an-2
ECD-d-8
EPC-an-13
EPN-v-100
EPP-an-7
EPA-v-100
EPT-an-20
EXC-an-13
EXN-v-100
CGC-an-13
CGN-an-70
CGP-an-9
CGA-an-35
CAT-an-35
CAC-an-35
CAS-an-35
CGK-an-2
ECC-an-5
EKN-an-35
NO-n-8
NOT-an-3
GW-n-10
GWT-an-3
ST-an-7
DSC-an-5
DSN-an-35
PSC-an-6
PSN-an-35
VSC-an-9
VSN-an-35
SYM-d-8
MRK-an-140
SS_-5-SS_-an-4
SS_-5-SN_-an-20
IV1-an-1
IV2-n-12
IV3-an-35
IVD-d-8
IVP-an-7
IP2-an-3
IP3-an-3
IP4-n-20
IP1-an-1
FCD-an-3
FKK-n-20
CNV-an-1
TP-n-20
TPM-an-1
BRC-an-11
BYA-n-4
BCM-an-10
BCN-an-10
ENC-an-1
SBC-an-11
RYA-n-4
SCM-an-10
SCN-an-10
EA_-3-EA_-an-3
EA_-3-EB_-n-12
DPD-d-8
ST_-3-ST_-an-7
ST_-3-AD_-d-8
ST_-3-SD_-d-8
ARP-an-7
ADT-d-8
NT2-v-100
REF-an-20
VC_-5-VC_-an-7
VN-an-70
VA-v-100
C__-50-C__-an-12
CCM-an-1
D__-10-D__-d-8
D__-10-T__-v-40
D__-10-I__-v-140