MDC-v-256
HSC-an-12
AET-an-35
QST-an-35
RGN-an-17
EOM-d-8
QT-n-8
QTU-an-3
QEA-an-70
EFE-an-50
TW-n-10
TWU-an-3
IMP-n-19
SWP-n-19
ESP-n-19
EFN-an-70
EXC-an-9
EFA-an-35
EFS-an-35
EFD-an-35
EFC-an-35
ECC-an-2
MFN-an-70
MPC-an-9
MFA-an-35
MFS-an-35
MFD-an-35
MFC-an-35
MCC-an-2
DBN-an-70
DPC-an-9
DAB-an-35
DAS-an-35
DAD-an-35
DAN-an-35
DCC-an-2
TPN-an-70
PPC-an-9
TPB-an-35
TPS-an-35
TPD-an-35
TPC-an-35
TCC-an-2
QS-n-8
QSU-an-3
QI-n-8
TQ-n-9
TE-n-9
ISD-n-8
DMD-n-8
REM-v-35