ICN-n-12
FIC-an-12
BNO-n-2
DNO-n-2
TDN-n-12
A07-an-3
A03-an-3
ADF-an-1
ADG-an-1
A06-an-1
A01-an-4
A08-an-10
A09-an-2
A10-d-8
AD1-n-6
AD2-d-8
AD3-n-6
RED-d-8
AAA-an-1
IMC-an-13
A20-v-100
A21-an-7
A22-v-100
A26-an-20
A27-an-13
A28-v-100
A29-an-13
A30-an-70
A31-an-9
A32-an-35
A33-an-35
A34-an-35
A35-an-35
A36-an-2
A37-an-70
A38-an-5
A39-an-50
A40-an-5
KA1-5-KA1-an-35
A49-n-8
A50-an-3
A53-n-10
A54-an-3
A57-n-3
A51-an-7
A52-an-20
A42-an-6
A43-an-35
A44-an-5
A45-an-35
A46-an-9
A47-an-35
A48-d-8
A62-an-140
A58-d-8
KB1-5-KB1-an-2
KC1-5-KC1-an-4
KC1-5-KD1-an-20
A72-an-1
A73-an-35
A74-n-12
IVD-d-8
IVP-an-7
A75-an-1
A76-an-3
A77-an-3
A78-n-20
A87-n-19
A97-n-20
A98-an-1
B02-an-1
A88-an-1
A89-an-9
A94-an-1
A95-an-2
A96-an-22
ADD-an-3
ADE-n-20
A79-an-1
A80-an-3
A81-n-18
A82-an-1
A83-an-3
A84-n-16
A85-an-6
VR1-5-VR1-an-1
VR1-5-VI1-an-3
VR1-5-VC1-an-3
VR1-5-VP1-n-20
VR1-5-VT1-n-20
VLD-v-280
KE1-6-KE1-an-1
KE1-6-KF1-v-9
KE1-6-KG1-n-11
KE1-6-KH1-n-2
B03-n-11
B04-n-11
KI1-3-KI1-an-3
KI1-3-KJ1-n-9
B07-an-1
B12-an-1
TPM-an-1
B13-n-2
B14-n-2
EA1-3-EA1-an-3
EA1-3-EN1-n-12
B15-v-100
B19-an-20
B17-an-5
B99-an-1
D01-10-D01-d-8
D01-10-T01-v-40
D01-10-I01-v-140
ADH-an-11
ADO-n-4
ADP-an-10
ADQ-an-10
ADI-an-1
ADJ-an-11
ADK-n-4
ADL-an-10
ADM-an-10
B21-d-8
AD4-n-6
B22-d-8
AD5-n-6
B23-an-2
B24-d-8
AD6-n-6
B25-d-8
AD7-n-6
B26-n-2
B31-d-8
AD8-n-6
B32-d-8
AD9-n-6
B34-d-8
ADA-n-6
B35-an-5
B42-v-27
KL1-6-KL1-an-1
KL1-6-KM1-v-9
KL1-6-KN1-d-8
ADX-an-1
ADY-v-9
ADZ-d-8
B27-d-8
ST1-3-ST1-an-7
ST1-3-BD1-d-8
ST1-3-CD1-d-8
ARP-an-7
B28-d-8