A01-n-12
A02-an-14
A03-an-1
A04-an-6
A05-d-8
A06-n-6
A07-d-8
A08-n-6
A09-d-8
A10-n-6
A11-an-13
A12-v-100
A13-v-100
A14-an-20
A15-d-8
A16-v-70
A17-v-100
A18-v-100
A19-an-5
A20-an-60
A21-v-100
A22-d-8
A23-an-20
A24-d-8
A25-v-100
DA1-5-DA1-n-1
DA1-5-DB1-an-20
DA1-5-DC1-d-8
DA1-5-DD1-v-100
B01-15-B01-an-13
B01-15-C01-v-100
A32-v-255
A33-v-140
A34-v-140