R01-an-2
CMD-an-12
COC-an-7
R03-an-1
CMN-v-200
QN1-n-12
QT1-an-4
QN2-n-12
QT2-an-4
BPR-n-20
UPR-n-9
UPC-an-3
TSC-an-4
R07-n-17
AD9-an-3
R14-an-3
R15-n-20
TSQ-n-12
TSU-an-4
CVU-n-18
ADA-an-3
QCV-an-4
TRA-an-30
TRM-an-1
TAX-n-16
ADB-an-3
REG-n-16
ADC-an-3
TDL-an-2
TXN-an-12
TXR-an-3
CUP-an-21
IUP-an-21
CQU-n-12
CQC-an-4
IQU-n-12
IQC-an-4
CPR-n-16
IPR-n-16
OL_-5-PL_-an-2
RE-an-5
TRL-an-60