A01-an-13
A02-v-100
A04-an-6
A05-v-100
A08-n-12
A07-n-1
A06-an-4
A09-an-70
A15-an-9
A10-an-35
A11-an-35
A12-an-35
A13-an-35
A14-an-2
A16-an-20
A17-an-20
A18-v-70
A27-an-35
A28-an-35
A29-an-5
A30-an-35
A19-an-13
A20-v-100
A23-an-7
A21-v-100
A22-an-2
A24-an-20
A25-an-20
A26-v-70
A31-an-6
A32-an-35
A33-d-8
A34-n-19
A35-an-3
A36-an-70
A37-d-8
A38-an-70
AD-v-250
A40-v-332
A03-d-8
A39-v-100