SBC-an-13
SBN-v-100
SPC-an-7
ADS-v-100
SCC-an-2
SUN-an-20
SFN-an-20
SBE-v-70
DOS-d-8
ONO-n-12
FNC-n-1
PRT-an-4
OAC-an-6
OAN-v-100
CNO-an-35
EXT-an-70
EPC-an-9
EBN-an-35
ESN-an-35
EDN-an-35
ECN-an-35
ERC-an-2
EPN-an-20
EFX-an-20
EEM-v-70
ECC-an-2
IMC-an-13
IMN-v-100
BRN-an-35
BPC-an-7
AOI-v-100
BCC-an-2
BPN-an-20
BFX-an-20
BEM-v-70
TCC-an-2
MOT-an-2
MTN-v-25
IBC-an-6
IBG-an-35
PRN-an-35
QUL-an-150
VAN-an-100
DOV-d-8
ANT-an-100
CON-an-100
PRC-an-70
QUT-d-8
QUH-an-4
CTL-an-150
CTT-d-8
CTH-an-4
NOC-n-2
ORE-an-150
AD-v-250
AVL-an-250
TET-an-50
TRS-v-332
SPN-an-35
NTN-an-2
CAN-an-50
DON-an-50
CRN-n-4
PAN-n-4
LDP-an-100
NAP-an-100
DCP-an-100
DOD-d-8
GFP-an-100
QFP-n-8
QFU-an-3
WFP-n-10
WFU-an-3
G01-10-G01-an-100
G01-10-Q01-n-8
G01-10-QU01-an-3
G01-10-W01-n-10
G01-10-WU01-an-3
G01-10-P01-an-100
DGD-an-100
DGQ-n-8
DQU-an-3
DGW-n-10
DWU-an-3