SS MIE                       AA001A01        P0023C                                                                                                                                                                        P0023C20130426094551000005001E                                                                                                                   1                           002134
100000251960
 
1
      
10
P123456789000
CLEARANCE,MT/CARGO,EDIFACT,XML                                                                                                                                                                                                                                                                              
1234567
1234 VO THI SAU, PHUONG 7, QUAN 3, TP, HC                                                                                                                                                                                                                                                                   
123002              
             
NACCS JAPAN CO.,LTD. TOKYO                                            
123456789
1-9-36 KONAN                       
MINATO KU                          
TOKYO TO                           
JAPAN                              
JP
13100123            
10001               
    10
      10
02AB001
JL0425/25APR
25042013
HAN
JPTYO
A
CIF
USD
                 300
 
   
                  
 
   
                
Miscellaneous goods                                                                                                                                                                                                                                                                                                                                                                                                                                                                                                                                                                                                     
US
