﻿SS IDA                       A0001A01        P0023C                                                                                                                                                                        P0023C20130329100303000001001E    TEST                                                                                                           1                           010450
            
            
  
  
            
A11
 
1
5
02AB01
01
        
        
P008436500000
                                                                                                                                                                                                                                                                                                            
       
                                                                                                                                                                                                                                                                                                            
123002              
             
                                                                                                                                                                                                                                                                                                            
             
NACCS JAPAN CO.,LTD. TOKYO                                            
         
1-9-36 KONAN                       
MINATO KU                          
TOKYO TO                           
JAPAN                              
JP
                                                                      
     
1310001                            
                                   
                                   
                                   
                                   
     100
PKK
       100
KGM
02AB001
MARK                                                                                                                                        
         
JL0401/01APR                       
01042013
HAN   
                                   
USLAX
                                   
   
 
  
  
  
  
  
    
                    
    
                    
    
                    
    
                    
    
                    
A
            
                                   
        
       
A
CIF
USD
           123456.78
6
         
   
                    
 
   
                  
 
   
                
      
 
   
   
                    
                    
 
   
   
                    
                    
 
   
   
                    
                    
 
   
   
                    
                    
 
   
   
                    
                    
                                                                                                                                                                                                                                                                                                                                                                                                                                                                                                                                                                                                                                                                                                                                                                                                                                                                        
                    
1
 
           
    
          
          
D
           
    
          
          
   
            
   
            
   
            
        
        
       
        
        
       
        
        
       
        
        
       
        
                                                                                                                                                                                                                                                                                                            
                    
 
        
                                                                                                                        
                                                                                                                                                                                                                                                                                                                                                                                                                                    
        
                                                                                                                        
                                                                                                                                                                                                                                                                                                                                                                                                                                    
        
                                                                                                                        
                                                                                                                                                                                                                                                                                                                                                                                                                                    
        
                                                                                                                        
                                                                                                                                                                                                                                                                                                                                                                                                                                    
        
                                                                                                                        
                                                                                                                                                                                                                                                                                                                                                                                                                                    
        
                                                                                                                        
                                                                                                                                                                                                                                                                                                                                                                                                                                    
        
                                                                                                                        
                                                                                                                                                                                                                                                                                                                                                                                                                                    
        
                                                                                                                        
                                                                                                                                                                                                                                                                                                                                                                                                                                    
        
                                                                                                                        
                                                                                                                                                                                                                                                                                                                                                                                                                                    
        
                                                                                                                        
                                                                                                                                                                                                                                                                                                                                                                                                                                    
100000000001
       
          
          
    
   
VIDEO RECORDER                                                                                                                                                                                          
JP
B03
 
          
         100
KG  
         100
NO  
                    
         
   
    
   
                    
 
 
 
 
 
  
            
   
     
                
V000000001
