﻿SS IDE                       A0001A01        P0023C                                                                                                                                                                        P0023C20130329104210000006001E                                                                                                                   1                           000417
100000147221
 
